{"current_page":1,"data":[{"id":1919880,"number":4,"server_seed_hash":"75856f98c006121392b2964d18169128e58796e227cff2f1eb2a987b77efb8e9","client1_seed":null,"client2_seed":null,"client3_seed":null,"created_at":"2025-12-05 18:12:57"},{"id":1919879,"number":5,"server_seed_hash":"f9cab31e3b79212119439e5f4f2c0d66e3411ce1f1c98294c61f495902c01fa4","client1_seed":null,"client2_seed":null,"client3_seed":null,"created_at":"2025-12-05 18:12:37"},{"id":1919878,"number":12,"server_seed_hash":"804e01e431026ce5b23e3fb6102c7f3e78dbc721733d5e120de477d04e318fa4","client1_seed":null,"client2_seed":null,"client3_seed":null,"created_at":"2025-12-05 18:12:17"},{"id":1919877,"number":10,"server_seed_hash":"513811d78d5db6393340291aeef63a771eb97c9cb8a76abb7183cced255d6762","client1_seed":null,"client2_seed":null,"client3_seed":null,"created_at":"2025-12-05 18:11:56"},{"id":1919876,"number":14,"server_seed_hash":"16009881df1462b170cc7a005d8706781859868b0f076d09f458112f1a5ab599","client1_seed":null,"client2_seed":null,"client3_seed":null,"created_at":"2025-12-05 18:11:36"},{"id":1919875,"number":3,"server_seed_hash":"93233b1ec4dccb24faec358365d4c87b8a2e2a420654cc1b028107ede8c73f4e","client1_seed":null,"client2_seed":null,"client3_seed":null,"created_at":"2025-12-05 18:11:16"},{"id":1919874,"number":3,"server_seed_hash":"f28e32c8823ada555b98f3b02e6066204c7209981a92108d5f3a4204d6f9f65f","client1_seed":null,"client2_seed":null,"client3_seed":null,"created_at":"2025-12-05 18:10:55"},{"id":1919873,"number":10,"server_seed_hash":"c5105f01ec70dcbe4d8092920c4745c543e7fc969232fcdd056d9fcb8dc0990e","client1_seed":null,"client2_seed":null,"client3_seed":null,"created_at":"2025-12-05 18:10:35"},{"id":1919872,"number":0,"server_seed_hash":"ccd871c332f9e487228ff932298e5011a8b505144fa6d16b072e3976c372dc9c","client1_seed":null,"client2_seed":null,"client3_seed":null,"created_at":"2025-12-05 18:10:15"},{"id":1919871,"number":11,"server_seed_hash":"b06a427ea2e09e4860bdaf30ec9a1e43dfea676f76a1529e46185dab6386ff71","client1_seed":null,"client2_seed":null,"client3_seed":null,"created_at":"2025-12-05 18:09:54"},{"id":1919870,"number":3,"server_seed_hash":"3051c143c9561dc330a291ec75812ef82216157d1c963bc405fef876f31deffc","client1_seed":null,"client2_seed":null,"client3_seed":null,"created_at":"2025-12-05 18:09:34"},{"id":1919869,"number":7,"server_seed_hash":"074730f3fe08465c6055218a82e80edc48611a61b8b29f4d4e677954b0f020f9","client1_seed":null,"client2_seed":null,"client3_seed":null,"created_at":"2025-12-05 18:09:14"},{"id":1919868,"number":2,"server_seed_hash":"a774fc2afa76e8c79963147021f14c27d8b4b558be9cb1d6f12b07f1c1068aca","client1_seed":null,"client2_seed":null,"client3_seed":null,"created_at":"2025-12-05 18:08:53"},{"id":1919867,"number":8,"server_seed_hash":"c9c141075647e6e8847c78db983cea8b1728e8f6796c9a390be9fb69db3594da","client1_seed":null,"client2_seed":null,"client3_seed":null,"created_at":"2025-12-05 18:08:33"},{"id":1919866,"number":14,"server_seed_hash":"76a92bf94ccac0a6c13ad015c8045332dd9753d73de583b28e51bce92a4b3a76","client1_seed":null,"client2_seed":null,"client3_seed":null,"created_at":"2025-12-05 18:08:13"},{"id":1919865,"number":11,"server_seed_hash":"9a10998ba28d435a727075f41e34360cebded62101b58b6ffd7e281ea3790abb","client1_seed":null,"client2_seed":null,"client3_seed":null,"created_at":"2025-12-05 18:07:53"},{"id":1919864,"number":1,"server_seed_hash":"198452a2f277a8269ffcf1a5e8a1aef6e2d3c793fc85c52140e2de2158e52d40","client1_seed":null,"client2_seed":null,"client3_seed":null,"created_at":"2025-12-05 18:07:32"},{"id":1919863,"number":14,"server_seed_hash":"c85671aa1edc884de68e3a5ea28c5291c760bf6a38e1a2d1e1186629e40e1970","client1_seed":null,"client2_seed":null,"client3_seed":null,"created_at":"2025-12-05 18:07:12"},{"id":1919862,"number":8,"server_seed_hash":"aaed29fbeecb081c5cbeaf125c18e4b033352ad8de94cfc91967919df463dea2","client1_seed":null,"client2_seed":null,"client3_seed":null,"created_at":"2025-12-05 18:06:52"},{"id":1919861,"number":9,"server_seed_hash":"cadebe1bae618cafb7749a5ad9467c44b3bc3d6ebad08b2935a10d8d8fd95afc","client1_seed":null,"client2_seed":null,"client3_seed":null,"created_at":"2025-12-05 18:06:31"},{"id":1919860,"number":9,"server_seed_hash":"01c614e39bc3dc23ca3e85ae193d7972e00fdeab27770eac1b40a9197644bff8","client1_seed":null,"client2_seed":null,"client3_seed":null,"created_at":"2025-12-05 18:06:11"},{"id":1919859,"number":7,"server_seed_hash":"9a3d0f0079003018817cd1ee8af8887ab478782db21d1c3f1c9ac767acd61910","client1_seed":null,"client2_seed":null,"client3_seed":null,"created_at":"2025-12-05 18:05:51"},{"id":1919858,"number":14,"server_seed_hash":"e925ba896f0b7d8c5d841d033c454d4adf0d765e84fa6fc08835f8a8c41de780","client1_seed":null,"client2_seed":null,"client3_seed":null,"created_at":"2025-12-05 18:05:30"},{"id":1919857,"number":6,"server_seed_hash":"d7cc50ab3b8b708fe6d4e5b999019bc5ed6b8e4980b13ee748cbdf377ddddbbd","client1_seed":null,"client2_seed":null,"client3_seed":null,"created_at":"2025-12-05 18:05:10"},{"id":1919856,"number":11,"server_seed_hash":"10d06c055815b0632aff7aad0b57b3a3c2cd668f3b96c7bb99fae1e901dcfa02","client1_seed":null,"client2_seed":null,"client3_seed":null,"created_at":"2025-12-05 18:04:50"},{"id":1919855,"number":11,"server_seed_hash":"29a01b94dbbba5d6ac3f0aa90541d22a2f2b7186e0df2aa0e262800edc3d380e","client1_seed":null,"client2_seed":null,"client3_seed":null,"created_at":"2025-12-05 18:04:29"},{"id":1919854,"number":7,"server_seed_hash":"97dff228982bd258ba7a264c097cd03a851c85994dbd44e57f12e36822ffa815","client1_seed":null,"client2_seed":null,"client3_seed":null,"created_at":"2025-12-05 18:04:09"},{"id":1919853,"number":1,"server_seed_hash":"f2e919bfed3f5368c947c069579acece281a05ab11233b7225284d1d0e313e4e","client1_seed":null,"client2_seed":null,"client3_seed":null,"created_at":"2025-12-05 18:03:49"},{"id":1919852,"number":14,"server_seed_hash":"f484a2b99ac898a6f59e5790b10db10dcc850562734f0ba5ade80c64edb68d35","client1_seed":null,"client2_seed":null,"client3_seed":null,"created_at":"2025-12-05 18:03:28"},{"id":1919851,"number":4,"server_seed_hash":"b5bf0cbf92fa8eb61f6af2f70a7f359288299e44af31699121f2959501af9dec","client1_seed":null,"client2_seed":null,"client3_seed":null,"created_at":"2025-12-05 18:03:08"},{"id":1919850,"number":12,"server_seed_hash":"4c670881c98487ae0d63d57be59a0e2b520e740fd1c6a9e548ea49723cc85dd9","client1_seed":null,"client2_seed":null,"client3_seed":null,"created_at":"2025-12-05 18:02:48"},{"id":1919849,"number":3,"server_seed_hash":"a0d571a580d3ff9e47575025250b66191bc0c3479f8f1573cd31fc4d397fb2f6","client1_seed":null,"client2_seed":null,"client3_seed":null,"created_at":"2025-12-05 18:02:28"},{"id":1919848,"number":9,"server_seed_hash":"c8ee28a93d543cc3d024bd912c27c986526cc081fc14aa84fcf1c170a04cbce1","client1_seed":null,"client2_seed":null,"client3_seed":null,"created_at":"2025-12-05 18:02:07"},{"id":1919847,"number":13,"server_seed_hash":"819a97bf90a5fc4c3c0539906a4f52cd979057e81c640cd1ebc18e6e0b60a920","client1_seed":null,"client2_seed":null,"client3_seed":null,"created_at":"2025-12-05 18:01:47"},{"id":1919846,"number":10,"server_seed_hash":"130b3b43d750be7bb5a4548114dc29cd916d1926a9844a405e18182c0579d213","client1_seed":null,"client2_seed":null,"client3_seed":null,"created_at":"2025-12-05 18:01:27"},{"id":1919845,"number":14,"server_seed_hash":"17d1cc43c7ba2ffd75f26f77803254352c7fc6de1aa0bdda7f7555d9ada4a959","client1_seed":null,"client2_seed":null,"client3_seed":null,"created_at":"2025-12-05 18:01:06"},{"id":1919844,"number":11,"server_seed_hash":"efa0b8d366c9082a3479b53dbe39e3063034a01c80ef3fdab7bef1bd2917d19a","client1_seed":null,"client2_seed":null,"client3_seed":null,"created_at":"2025-12-05 18:00:46"},{"id":1919843,"number":3,"server_seed_hash":"02b21eed1ec250b1498f34b52db2d52d0a00cdb2d32ba5a3a0dbd9204ab6e708","client1_seed":null,"client2_seed":null,"client3_seed":null,"created_at":"2025-12-05 18:00:26"},{"id":1919842,"number":2,"server_seed_hash":"c00597e54b683e6cd37758df427b4d32e5cff39fe7152a1d7ff2dfe8bdd62ee9","client1_seed":null,"client2_seed":null,"client3_seed":null,"created_at":"2025-12-05 18:00:05"},{"id":1919841,"number":14,"server_seed_hash":"281d52174cecf5d0319a20501bc60805ddec1741660ef358dd4f7d56f59e4395","client1_seed":null,"client2_seed":null,"client3_seed":null,"created_at":"2025-12-05 17:59:45"},{"id":1919840,"number":10,"server_seed_hash":"d1ffc5639215824c6eea85bda602bedbb4154a0e4c35b9135e10f06de544224c","client1_seed":null,"client2_seed":null,"client3_seed":null,"created_at":"2025-12-05 17:59:25"},{"id":1919839,"number":0,"server_seed_hash":"c8c60e67814893d74961bdf771b5ba5d4bbced83493a9f4164b009bf86736520","client1_seed":null,"client2_seed":null,"client3_seed":null,"created_at":"2025-12-05 17:59:04"},{"id":1919838,"number":3,"server_seed_hash":"16848e8847338270e0044be087614dacdd3ff5f1db282dd31d8e6aa724b230f9","client1_seed":null,"client2_seed":null,"client3_seed":null,"created_at":"2025-12-05 17:58:44"},{"id":1919837,"number":7,"server_seed_hash":"52d579b9478a991a0123fa7c3f822c030e23265cfbc1e510cd7f0adc89ccc637","client1_seed":null,"client2_seed":null,"client3_seed":null,"created_at":"2025-12-05 17:58:24"},{"id":1919836,"number":0,"server_seed_hash":"ee8f9131037c2d95667062c29cd87031f2cccb0d46f24efce8181b499a6200db","client1_seed":null,"client2_seed":null,"client3_seed":null,"created_at":"2025-12-05 17:58:03"},{"id":1919835,"number":4,"server_seed_hash":"b7668d9479999134532b627c86f45b59031c6b2ebc068f042c66b470a1a0e4d3","client1_seed":null,"client2_seed":null,"client3_seed":null,"created_at":"2025-12-05 17:57:43"},{"id":1919834,"number":7,"server_seed_hash":"cbb14459ef2c2210cacf5af79e437ab1855665f53f457def39d1e99eca84e1ef","client1_seed":null,"client2_seed":null,"client3_seed":null,"created_at":"2025-12-05 17:57:23"},{"id":1919833,"number":7,"server_seed_hash":"0c77df4d1475fc494d2d1a463a17c89b23ae5ad2789415bc9a91e2bfc361531d","client1_seed":null,"client2_seed":null,"client3_seed":null,"created_at":"2025-12-05 17:57:02"},{"id":1919832,"number":4,"server_seed_hash":"e24b6dd392f4aaf35d8b24aebbe02801fbf353734827db594965ebe086f3f1ad","client1_seed":null,"client2_seed":null,"client3_seed":null,"created_at":"2025-12-05 17:56:42"},{"id":1919831,"number":0,"server_seed_hash":"2c11e40d215e09aef3eead9f3938151c36a390390875bbaa60641f727603324b","client1_seed":null,"client2_seed":null,"client3_seed":null,"created_at":"2025-12-05 17:56:22"},{"id":1919830,"number":12,"server_seed_hash":"7fb3f5cfda5898d05bb1dd0d8087a6adea0f725dd2b920e4ffa78fa3b223ec45","client1_seed":null,"client2_seed":null,"client3_seed":null,"created_at":"2025-12-05 17:56:02"},{"id":1919829,"number":5,"server_seed_hash":"e2aa96b49a24d028b2953cc52d4031067739a1d4278b623c952af3d6808e03e8","client1_seed":null,"client2_seed":null,"client3_seed":null,"created_at":"2025-12-05 17:55:41"},{"id":1919828,"number":7,"server_seed_hash":"a86f0fabefb5db11fc3d6f3dfd650c1429614b02b00a4454b25056c9eb531f9e","client1_seed":null,"client2_seed":null,"client3_seed":null,"created_at":"2025-12-05 17:55:21"},{"id":1919827,"number":14,"server_seed_hash":"9ce0d78f2399e4192235318cd0ce2bffa947eac35424cdd28d0581719daf3216","client1_seed":null,"client2_seed":null,"client3_seed":null,"created_at":"2025-12-05 17:55:01"},{"id":1919826,"number":13,"server_seed_hash":"82c3133f410ac9aa12150acca59d19cf2e685df348853b1ae96d6a2400c5a812","client1_seed":null,"client2_seed":null,"client3_seed":null,"created_at":"2025-12-05 17:54:40"},{"id":1919825,"number":7,"server_seed_hash":"4481168fcb944e285d7bd0dd51ea2ac6aeb4d60d56dab7d34d5f7f6ca89b024a","client1_seed":null,"client2_seed":null,"client3_seed":null,"created_at":"2025-12-05 17:54:20"},{"id":1919824,"number":13,"server_seed_hash":"93f3e79bdbffb598076995202df453b6f20e369b3b3ad580ba3cc9e54eeadfd0","client1_seed":null,"client2_seed":null,"client3_seed":null,"created_at":"2025-12-05 17:54:00"},{"id":1919823,"number":9,"server_seed_hash":"0eb9276af59ac8fe88de345982a09b86e1031700d4c40b3c3d8a191c82716d58","client1_seed":null,"client2_seed":null,"client3_seed":null,"created_at":"2025-12-05 17:53:39"},{"id":1919822,"number":9,"server_seed_hash":"b4ea98a40ef7d61c658a5888d0fb3a90359051ae66df61791d91571b09ce0da3","client1_seed":null,"client2_seed":null,"client3_seed":null,"created_at":"2025-12-05 17:53:19"},{"id":1919821,"number":8,"server_seed_hash":"4671090cb0427eb24fc6d4a0cd62b4c1274902672a974bdc265cf7149e24a018","client1_seed":null,"client2_seed":null,"client3_seed":null,"created_at":"2025-12-05 17:52:59"},{"id":1919820,"number":13,"server_seed_hash":"ec2ffc4001d93d51fe58b64df72ab6dd454a9e340089f2a84139c78dceb4c0f4","client1_seed":null,"client2_seed":null,"client3_seed":null,"created_at":"2025-12-05 17:52:38"},{"id":1919819,"number":11,"server_seed_hash":"c81f2d6cbe6758cd518299558717d3b080ab30e630de70e86419ab20116a071b","client1_seed":null,"client2_seed":null,"client3_seed":null,"created_at":"2025-12-05 17:52:18"},{"id":1919818,"number":12,"server_seed_hash":"6f2ccb52312485d3810c1aa77cdea635b3af8715369c49369178e5987cfbf14d","client1_seed":null,"client2_seed":null,"client3_seed":null,"created_at":"2025-12-05 17:51:58"},{"id":1919817,"number":13,"server_seed_hash":"193818513d22569287a19d0af5a94e8df04bafb1e593197af84b10af4862e67c","client1_seed":null,"client2_seed":null,"client3_seed":null,"created_at":"2025-12-05 17:51:37"},{"id":1919816,"number":4,"server_seed_hash":"082faea5b486d769e976830f8efe895e4ae3b68ad9fee9de306233215ece1240","client1_seed":null,"client2_seed":null,"client3_seed":null,"created_at":"2025-12-05 17:51:17"},{"id":1919815,"number":12,"server_seed_hash":"cd7414816cd276fd6018c95f10438f7e7f52626afdd806980f796998c53786ba","client1_seed":null,"client2_seed":null,"client3_seed":null,"created_at":"2025-12-05 17:50:57"},{"id":1919814,"number":8,"server_seed_hash":"2839b21ff8331634ce62ac846f3f290951899217669e3dd6d54e3e34eedb913b","client1_seed":null,"client2_seed":null,"client3_seed":null,"created_at":"2025-12-05 17:50:36"},{"id":1919813,"number":11,"server_seed_hash":"b6cb0be541468b23921d0496d746a7c761a1ff745ac84894cd6351706283eea0","client1_seed":null,"client2_seed":null,"client3_seed":null,"created_at":"2025-12-05 17:50:16"},{"id":1919812,"number":8,"server_seed_hash":"a95100fd0ab1ce8522fac56936c99a63af2a330311ba5f5028e9eae51ae87c15","client1_seed":null,"client2_seed":null,"client3_seed":null,"created_at":"2025-12-05 17:49:56"},{"id":1919811,"number":14,"server_seed_hash":"0062970af9ca971a78d1336d67e40f9e71343f57af3eb73d4da051fd9b4d3f8b","client1_seed":null,"client2_seed":null,"client3_seed":null,"created_at":"2025-12-05 17:49:36"},{"id":1919810,"number":13,"server_seed_hash":"c5b9fa393b6e83d0c814bb389581afaa47067e03326375ed43abe0fee0bafa9f","client1_seed":null,"client2_seed":null,"client3_seed":null,"created_at":"2025-12-05 17:49:15"},{"id":1919809,"number":4,"server_seed_hash":"85f2823fd0d2a9b7f48e57e88de6ecb8bf838f0e46f86d373aa60b688d6c4bde","client1_seed":null,"client2_seed":null,"client3_seed":null,"created_at":"2025-12-05 17:48:55"},{"id":1919808,"number":14,"server_seed_hash":"85f35a63de388cc4b696db4a9a0bc04752f61e85bc12cfc6c302e145ccdc1122","client1_seed":null,"client2_seed":null,"client3_seed":null,"created_at":"2025-12-05 17:48:35"},{"id":1919807,"number":2,"server_seed_hash":"90ca8ac2007483c9966ca31c5cb7a05e2ea4a41f07c47acf0a41cb0a03e35e69","client1_seed":null,"client2_seed":null,"client3_seed":null,"created_at":"2025-12-05 17:48:14"},{"id":1919806,"number":14,"server_seed_hash":"6b38a4fce7aae1c5e410f73f98a33db3f9787025cf217b355ffa0fd7a6f2ddde","client1_seed":null,"client2_seed":null,"client3_seed":null,"created_at":"2025-12-05 17:47:54"},{"id":1919805,"number":14,"server_seed_hash":"22f6b5343d0128a6e6e31150b11fba5f689d4608413ae971639cecbf546cb174","client1_seed":null,"client2_seed":null,"client3_seed":null,"created_at":"2025-12-05 17:47:34"},{"id":1919804,"number":14,"server_seed_hash":"2c0118605e28d21f9889ff90508f2c660e632ea08d27f6e4a8a3f17a6df87394","client1_seed":null,"client2_seed":null,"client3_seed":null,"created_at":"2025-12-05 17:47:13"},{"id":1919803,"number":13,"server_seed_hash":"e4573d9bcf41bc7437c4b855f30836e649a25a8812973a0a058cc49ff3193fdf","client1_seed":null,"client2_seed":null,"client3_seed":null,"created_at":"2025-12-05 17:46:53"},{"id":1919802,"number":4,"server_seed_hash":"5b1c759d5730b183e616f25acbc35f479136e6d1bc35a984fd0019f7be46b9df","client1_seed":null,"client2_seed":null,"client3_seed":null,"created_at":"2025-12-05 17:46:33"},{"id":1919801,"number":7,"server_seed_hash":"132d0a7184c8d188eaf37af0ae41d45a2ca0a584b9dd208d764221ee6a4c433e","client1_seed":null,"client2_seed":null,"client3_seed":null,"created_at":"2025-12-05 17:46:12"},{"id":1919800,"number":3,"server_seed_hash":"a4527228926c9004238e742becd7cd5155273b4f13e935c6ed558912b00d8ad6","client1_seed":null,"client2_seed":null,"client3_seed":null,"created_at":"2025-12-05 17:45:52"},{"id":1919799,"number":6,"server_seed_hash":"8bc78a80476f3aa2596ead1088d7f11a7d9a0c81c3b79ba7ec22bac36a12cc8b","client1_seed":null,"client2_seed":null,"client3_seed":null,"created_at":"2025-12-05 17:45:32"},{"id":1919798,"number":0,"server_seed_hash":"5a325c38bd41c2aa946faaeef05356d56f43829a134acf1bb3da26546c406171","client1_seed":null,"client2_seed":null,"client3_seed":null,"created_at":"2025-12-05 17:45:11"},{"id":1919797,"number":9,"server_seed_hash":"6e32946124b2bbb8780f0b12967c57a9218f85b6cd551a00340f9929479c9c79","client1_seed":null,"client2_seed":null,"client3_seed":null,"created_at":"2025-12-05 17:44:51"},{"id":1919796,"number":14,"server_seed_hash":"9384a64a66ed12ff525f77226e071568d36d85d0bc7b4c076fff7c4f439849c7","client1_seed":null,"client2_seed":null,"client3_seed":null,"created_at":"2025-12-05 17:44:31"},{"id":1919795,"number":14,"server_seed_hash":"2fa73a9447da636915ae682d1f9956383b21aff3712a0eec2db6e8f9c451a565","client1_seed":null,"client2_seed":null,"client3_seed":null,"created_at":"2025-12-05 17:44:10"},{"id":1919794,"number":4,"server_seed_hash":"2e3d8eebc1056362386a8dcfde0a4223ed59e1b6e8e1ef4ffad01f2949d7841d","client1_seed":null,"client2_seed":null,"client3_seed":null,"created_at":"2025-12-05 17:43:50"},{"id":1919793,"number":12,"server_seed_hash":"3c393746fa8ce0e3471f1eedd161f1fae1478bdcf982adf8f6a38efd6fe934c0","client1_seed":null,"client2_seed":null,"client3_seed":null,"created_at":"2025-12-05 17:43:30"},{"id":1919792,"number":14,"server_seed_hash":"7c892505a604da6df8dd2688b3d08e81851007faac87dfae4670e10e14b33979","client1_seed":null,"client2_seed":null,"client3_seed":null,"created_at":"2025-12-05 17:43:09"},{"id":1919791,"number":14,"server_seed_hash":"3619ca4d3625178ce915886814d39de5e079632d173e13cf4dfb051e661144e7","client1_seed":null,"client2_seed":null,"client3_seed":null,"created_at":"2025-12-05 17:42:49"},{"id":1919790,"number":1,"server_seed_hash":"c1de7227073c23e2e21926a24d82494eb49b03f44986a62d798264e37c9a3777","client1_seed":null,"client2_seed":null,"client3_seed":null,"created_at":"2025-12-05 17:42:29"},{"id":1919789,"number":4,"server_seed_hash":"1772b6fe8372676abe3f113714027cb4e2eea9e257feef994be483d558129037","client1_seed":null,"client2_seed":null,"client3_seed":null,"created_at":"2025-12-05 17:42:09"},{"id":1919788,"number":3,"server_seed_hash":"1cdbb23deae0bf9fd8519e8e472b33393df80a63067b786ff18d884cda37aa81","client1_seed":null,"client2_seed":null,"client3_seed":null,"created_at":"2025-12-05 17:41:48"},{"id":1919787,"number":13,"server_seed_hash":"b02ed2e709c04f461402a1c7facbba503901aab95e69fa6e9371b420e156e331","client1_seed":null,"client2_seed":null,"client3_seed":null,"created_at":"2025-12-05 17:41:28"},{"id":1919786,"number":12,"server_seed_hash":"939fb0500c28674a39bd0677ea83d4e24bd27b063f83bc86d7848dd54f201c04","client1_seed":null,"client2_seed":null,"client3_seed":null,"created_at":"2025-12-05 17:41:08"},{"id":1919785,"number":8,"server_seed_hash":"6392d98ebc6581df36543eb05cfd589687817309729ba7712b6384132055964e","client1_seed":null,"client2_seed":null,"client3_seed":null,"created_at":"2025-12-05 17:40:47"},{"id":1919784,"number":1,"server_seed_hash":"b47e364b04df12f2ae66992f169172f857eab7cc244dd74097b928c7b1db91d0","client1_seed":null,"client2_seed":null,"client3_seed":null,"created_at":"2025-12-05 17:40:27"},{"id":1919783,"number":11,"server_seed_hash":"cd495a2dc4c5feb4d4ec5592e12eb7b80619f011641718a54292274eadcfe40d","client1_seed":null,"client2_seed":null,"client3_seed":null,"created_at":"2025-12-05 17:40:07"},{"id":1919782,"number":3,"server_seed_hash":"e3bfa0726abb96b4c3ffc4fefaef3f5e88f4d6cf40d78641352600a2bb287aff","client1_seed":null,"client2_seed":null,"client3_seed":null,"created_at":"2025-12-05 17:39:46"},{"id":1919781,"number":6,"server_seed_hash":"38b91921174d980f9c79ce491c82ad3d164994bf61cd784ca74a1338e0b9fdc1","client1_seed":null,"client2_seed":null,"client3_seed":null,"created_at":"2025-12-05 17:39:26"}],"first_page_url":"http:\/\/prod-double-o-br1.banana.games\/rounds-info?page=1","from":1,"last_page":5174,"last_page_url":"http:\/\/prod-double-o-br1.banana.games\/rounds-info?page=5174","links":[{"url":null,"label":"&laquo; Previous","active":false},{"url":"http:\/\/prod-double-o-br1.banana.games\/rounds-info?page=1","label":"1","active":true},{"url":"http:\/\/prod-double-o-br1.banana.games\/rounds-info?page=2","label":"2","active":false},{"url":"http:\/\/prod-double-o-br1.banana.games\/rounds-info?page=3","label":"3","active":false},{"url":"http:\/\/prod-double-o-br1.banana.games\/rounds-info?page=4","label":"4","active":false},{"url":"http:\/\/prod-double-o-br1.banana.games\/rounds-info?page=5","label":"5","active":false},{"url":"http:\/\/prod-double-o-br1.banana.games\/rounds-info?page=6","label":"6","active":false},{"url":"http:\/\/prod-double-o-br1.banana.games\/rounds-info?page=7","label":"7","active":false},{"url":"http:\/\/prod-double-o-br1.banana.games\/rounds-info?page=8","label":"8","active":false},{"url":"http:\/\/prod-double-o-br1.banana.games\/rounds-info?page=9","label":"9","active":false},{"url":"http:\/\/prod-double-o-br1.banana.games\/rounds-info?page=10","label":"10","active":false},{"url":null,"label":"...","active":false},{"url":"http:\/\/prod-double-o-br1.banana.games\/rounds-info?page=5173","label":"5173","active":false},{"url":"http:\/\/prod-double-o-br1.banana.games\/rounds-info?page=5174","label":"5174","active":false},{"url":"http:\/\/prod-double-o-br1.banana.games\/rounds-info?page=2","label":"Next &raquo;","active":false}],"next_page_url":"http:\/\/prod-double-o-br1.banana.games\/rounds-info?page=2","path":"http:\/\/prod-double-o-br1.banana.games\/rounds-info","per_page":100,"prev_page_url":null,"to":100,"total":517314}